<?xml version="1.0" encoding="utf-8"?>
<!-- Generator: Adobe Illustrator 16.0.0, SVG Export Plug-In . SVG Version: 6.00 Build 0)  -->
<!DOCTYPE svg PUBLIC "-//W3C//DTD SVG 1.1//EN" "http://www.w3.org/Graphics/SVG/1.1/DTD/svg11.dtd">
<svg version="1.1" id="Capa_1" xmlns="http://www.w3.org/2000/svg" xmlns:xlink="http://www.w3.org/1999/xlink" x="0px" y="0px"
	 width="32px" height="32px" viewBox="209.923 419.847 32 32" enable-background="new 209.923 419.847 32 32" xml:space="preserve">
<g>
	<path fill="#444444" d="M224.349,444.256l-13.672-13.67c-0.87-0.87-0.87-2.279,0-3.148c0.869-0.871,2.279-0.871,3.149,0
		l12.097,12.096l12.097-12.096c0.869-0.87,2.279-0.87,3.148,0c0.871,0.87,0.871,2.278,0,3.148l-13.671,13.672
		c-0.436,0.434-1.005,0.651-1.575,0.651C225.353,444.91,224.783,444.691,224.349,444.256z"/>
</g>
</svg>
