<?xml version="1.0" encoding="utf-8"?>
<!-- Generator: Adobe Illustrator 16.0.0, SVG Export Plug-In . SVG Version: 6.00 Build 0)  -->
<!DOCTYPE svg PUBLIC "-//W3C//DTD SVG 1.1//EN" "http://www.w3.org/Graphics/SVG/1.1/DTD/svg11.dtd">
<svg version="1.1" id="Layer_1" xmlns="http://www.w3.org/2000/svg" xmlns:xlink="http://www.w3.org/1999/xlink" x="0px" y="0px"
	 width="100px" height="200px" viewBox="0 0 100 200" enable-background="new 0 0 100 200" xml:space="preserve">
<g>
	<path fill="#F85D5D" stroke="#F85D5D" stroke-width="5" stroke-miterlimit="10" d="M36.244,46.431
		c0-5.368,1.007-10.475,3.02-15.322c2.014-4.844,4.81-9.094,8.388-12.749c3.579-3.652,7.752-6.599,12.526-8.835
		c4.771-2.237,9.842-3.355,15.209-3.355c2.385,0,4.285,0.671,5.703,2.013c1.417,1.343,2.125,2.984,2.125,4.922
		c0,1.939-0.669,3.578-2.013,4.921c-1.342,1.342-2.984,2.013-4.92,2.013c-3.579,0-6.974,0.709-10.178,2.124
		c-3.208,1.419-6.004,3.321-8.388,5.704c-2.387,2.387-4.25,5.183-5.592,8.388c-1.342,3.208-2.013,6.599-2.013,10.178v107.139
		c0,3.58,0.671,6.974,2.013,10.179c1.342,3.207,3.205,6.003,5.592,8.385c2.384,2.385,5.18,4.285,8.388,5.706
		c3.204,1.414,6.599,2.124,10.178,2.124c1.936,0,3.578,0.671,4.92,2.015c1.344,1.34,2.013,2.98,2.013,4.919
		c0,1.936-0.669,3.578-2.013,4.922c-1.342,1.342-2.984,2.013-4.92,2.013c-5.519,0-10.703-1.045-15.546-3.132
		c-4.848-2.091-9.098-4.96-12.749-8.609c-3.656-3.659-6.524-7.942-8.611-12.862c-2.09-4.923-3.132-10.14-3.132-15.658v-46.524H23.72
		c-1.94,0-3.579-0.671-4.922-2.013c-1.342-1.342-2.013-2.982-2.013-4.921c0-1.936,0.671-3.579,2.013-4.921
		c1.343-1.343,2.981-2.013,4.922-2.013h12.524V46.431z"/>
</g>
<g>
</g>
<g>
</g>
<g>
</g>
<g>
</g>
<g>
</g>
<g>
</g>
</svg>
