<?xml version="1.0" encoding="utf-8"?>
<!-- Generator: Adobe Illustrator 16.0.0, SVG Export Plug-In . SVG Version: 6.00 Build 0)  -->
<!DOCTYPE svg PUBLIC "-//W3C//DTD SVG 1.1//EN" "http://www.w3.org/Graphics/SVG/1.1/DTD/svg11.dtd">
<svg version="1.1" id="Capa_1" xmlns="http://www.w3.org/2000/svg" xmlns:xlink="http://www.w3.org/1999/xlink" x="0px" y="0px"
	 width="300px" height="300px" viewBox="0 0 300 300" enable-background="new 0 0 300 300" xml:space="preserve">
<g>
	<path fill="#444444" d="M276.536,29.403c-12.514-6.738-26.47,6.256-34.65,13.957c-18.77,18.288-34.65,39.462-52.457,58.713
		c-19.731,21.175-38.021,42.351-58.233,63.046c-11.55,11.549-24.063,24.063-31.763,38.5c-17.325-16.846-32.244-35.134-51.494-50.051
		c-13.957-10.588-37.057-18.289-36.576,7.219c0.962,33.207,30.319,68.82,51.976,91.438c9.144,9.625,21.175,19.731,35.132,20.214
		c16.844,0.962,34.169-19.251,44.275-30.32c17.807-19.25,32.245-40.906,48.606-60.637c21.176-25.988,42.832-51.496,63.525-77.965
		C267.874,87.154,308.779,46.729,276.536,29.403z M32.538,158.862c-0.481,0-0.963,0-1.925,0.479
		c-1.925-0.479-3.369-0.963-5.294-1.926l0,0C26.763,156.455,29.169,156.938,32.538,158.862z"/>
</g>
</svg>
