<?xml version="1.0" encoding="utf-8"?>
<!-- Generator: Adobe Illustrator 16.0.0, SVG Export Plug-In . SVG Version: 6.00 Build 0)  -->
<!DOCTYPE svg PUBLIC "-//W3C//DTD SVG 1.1//EN" "http://www.w3.org/Graphics/SVG/1.1/DTD/svg11.dtd">
<svg version="1.1" id="Layer_1" xmlns="http://www.w3.org/2000/svg" xmlns:xlink="http://www.w3.org/1999/xlink" x="0px" y="0px"
	 width="100px" height="100px" viewBox="50 100 100 100" enable-background="new 50 100 100 100" xml:space="preserve">
<line fill="none" stroke="#F85D5D" stroke-width="5" stroke-linecap="round" stroke-miterlimit="10" x1="81.189" y1="124.274" x2="81.189" y2="160.432"/>
<line fill="none" stroke="#F85D5D" stroke-width="5" stroke-linecap="round" stroke-miterlimit="10" x1="122.444" y1="124.274" x2="122.444" y2="160.432"/>
<polyline fill="none" stroke="#F85D5D" stroke-width="5" stroke-linecap="round" stroke-miterlimit="10" points="146.117,145.137 
	101.242,175.726 53.883,145.137 "/>
</svg>
