<?xml version="1.0" encoding="UTF-8" standalone="no"?>
<!DOCTYPE svg PUBLIC "-//W3C//DTD SVG 1.1//EN" "http://www.w3.org/Graphics/SVG/1.1/DTD/svg11.dtd">
<svg width="100%" height="100%" viewBox="0 0 57 57" version="1.1" xmlns="http://www.w3.org/2000/svg" xmlns:xlink="http://www.w3.org/1999/xlink" xml:space="preserve" style="fill-rule:evenodd;clip-rule:evenodd;stroke-linejoin:round;stroke-miterlimit:1.41421;">
    <g transform="matrix(0.770344,0,0,0.770344,6.43067,6.43106)">
        <path d="M20.294,13.952C20.294,11.615 22.189,9.72 24.526,9.72C26.863,9.72 28.757,11.615 28.757,13.952C28.757,16.289 26.863,18.184 24.526,18.184C22.189,18.184 20.294,16.289 20.294,13.952ZM26.515,33.035C24.568,33.87 22.437,34.455 20.292,34.764L20.292,54.215C20.292,55.204 21.095,56.006 22.084,56.006C23.072,56.006 23.876,55.204 23.876,54.215L23.876,37.725C24.126,37.77 24.381,37.795 24.643,37.795C24.907,37.795 25.162,37.77 25.412,37.725L25.412,48.073C25.412,49.062 26.215,49.865 27.204,49.865C28.193,49.865 28.996,49.062 28.996,48.073L28.996,34.509C28.996,34.364 28.975,34.228 28.941,34.093C28.972,33.882 28.996,33.666 28.996,33.447L28.996,31.974C28.217,32.279 27.416,32.62 26.583,33.005L26.515,33.035ZM19.764,22.921C19.92,23.078 20.101,23.195 20.292,23.281L20.292,28.537C21.598,28.288 22.879,27.907 24.062,27.403C25.779,26.611 27.406,25.967 28.996,25.457L28.996,23.208C28.996,23.031 28.981,22.858 28.961,22.687L38.139,13.51C38.838,12.811 38.838,11.677 38.139,10.976C37.441,10.276 36.305,10.276 35.607,10.976L27.018,19.564C26.335,19.119 25.521,18.857 24.645,18.857C23.565,18.857 22.578,19.253 21.818,19.905L12.889,10.976C12.19,10.276 11.055,10.276 10.355,10.976C9.654,11.675 9.654,12.81 10.355,13.51L19.764,22.921ZM40.194,23.308C35.251,23.605 30.987,24.885 25.942,27.589C22.593,29.26 18.476,29.982 15.153,29.467C13.182,29.194 11.347,27.786 9.405,26.298C8.616,25.694 7.802,25.069 6.966,24.516L4.71,27.932C5.426,28.406 6.148,28.959 6.913,29.545C9.085,31.213 11.548,33.102 14.559,33.518C15.866,33.721 17.253,33.776 18.667,33.691C21.75,33.506 24.967,32.659 27.801,31.236L27.852,31.21C32.413,28.765 36.059,27.659 40.44,27.397C43.557,27.209 44.592,27.837 47.36,29.515L48.155,29.994L50.26,26.482L49.483,26.012C46.535,24.225 44.588,23.044 40.194,23.308ZM47.709,9.614L46.542,8.51L45.438,9.678L46.606,10.782L47.709,9.614ZM46.574,14.755L46.574,13.951L45.771,13.951L45.771,14.755L46.574,14.755ZM39.653,18.186L40.647,17.191L39.654,16.198L38.659,17.194L39.653,18.186ZM2.046,7.388L3.491,7.905L4.008,6.46L2.563,5.943L2.046,7.388ZM7.012,11.024L6.017,9.358L4.352,10.353L5.347,12.019L7.012,11.024ZM10.002,17.896L9.455,16.393L7.951,16.941L8.499,18.444L10.002,17.896ZM16.568,7.394L17.19,7.846L17.641,7.224L17.02,6.773L16.568,7.394ZM26.821,5.056L26.114,4.756L25.814,5.462L26.521,5.762L26.821,5.056ZM30.351,7.316L30.476,7.812C32.665,7.265 33.931,6.519 34.246,5.572C34.439,4.713 34.066,4.267 33.739,3.873C33.576,3.677 33.42,3.492 33.343,3.261L33.32,3.203C32.938,2.314 32.506,1.305 33.186,0.285L32.759,0C31.925,1.251 32.458,2.496 32.859,3.422C32.964,3.744 33.159,3.977 33.345,4.201C33.646,4.562 33.882,4.847 33.753,5.437C33.513,6.159 32.304,6.828 30.351,7.316ZM16.691,2.571C17.746,3.51 18.837,4.481 18.408,5.41L18.873,5.624C19.46,4.351 18.17,3.203 17.032,2.19C16.47,1.69 15.94,1.218 15.657,0.773L15.226,1.048C15.547,1.552 16.103,2.047 16.691,2.571ZM51.539,14.738L51.531,14.836L52.041,14.882L52.049,14.784C52.203,13.086 52.443,11.788 53.961,11.788L53.961,11.276C51.851,11.276 51.664,13.36 51.539,14.738Z" style="fill:rgb(248,93,93);fill-rule:nonzero;"/>
    </g>
</svg>
