<?xml version="1.0" encoding="utf-8"?>
<!-- Generator: Adobe Illustrator 18.0.0, SVG Export Plug-In . SVG Version: 6.00 Build 0)  -->
<!DOCTYPE svg PUBLIC "-//W3C//DTD SVG 1.1//EN" "http://www.w3.org/Graphics/SVG/1.1/DTD/svg11.dtd">
<svg version="1.1" id="Layer_1" xmlns="http://www.w3.org/2000/svg" xmlns:xlink="http://www.w3.org/1999/xlink" x="0px" y="0px"
	 viewBox="0 0 45.1 45" enable-background="new 0 0 45.1 45" xml:space="preserve">
<path fill="#e73b32" d="M22.5,0C10.1,0,0,10.1,0,22.5C0,34.9,10.1,45,22.5,45C34.9,45,45,34.9,45,22.5C45,10.1,34.9,0,22.5,0z
	 M22.5,43C11.2,43,2,33.8,2,22.5C2,11.2,11.2,2,22.5,2C33.8,2,43,11.2,43,22.5C43,33.8,33.8,43,22.5,43z"/>
<path fill="#e73b32" d="M31.3,15.6c-0.3,0-0.5,0.1-0.7,0.3l-11,11l-5.2-5.2c-0.2-0.2-0.4-0.3-0.7-0.3s-0.5,0.1-0.7,0.3
	c-0.2,0.2-0.3,0.4-0.3,0.7c0,0.3,0.1,0.5,0.3,0.7l5.9,5.9c0.2,0.2,0.4,0.3,0.7,0.3c0.3,0,0.5-0.1,0.7-0.3L32,17.3
	c0.2-0.2,0.3-0.4,0.3-0.7c0-0.3-0.1-0.5-0.3-0.7C31.8,15.8,31.6,15.6,31.3,15.6z"/>
</svg>
