<?xml version="1.0" encoding="utf-8"?>
<!-- Generator: Adobe Illustrator 16.0.0, SVG Export Plug-In . SVG Version: 6.00 Build 0)  -->
<!DOCTYPE svg PUBLIC "-//W3C//DTD SVG 1.1//EN" "http://www.w3.org/Graphics/SVG/1.1/DTD/svg11.dtd">
<svg version="1.1" id="Capa_1" xmlns="http://www.w3.org/2000/svg" xmlns:xlink="http://www.w3.org/1999/xlink" x="0px" y="0px"
	 width="200px" height="200px" viewBox="0 0 200 200" enable-background="new 0 0 200 200" xml:space="preserve">
<g>
	<path fill="#FFFFFF" d="M190.262,194.091c-24.014-9.551-45.336-30.104-48.867-56.687c-0.196-1.479,0.976-3.503,2.493-4.494
		c0.917-0.595,1.835-1.192,2.774-1.803c4.813-2.991,9.304-7.063,13.899-10.857c4.317-4.31,8.742-8.455,12.476-13.38
		c15.595-20.575,26.893-47.539,25.332-73.92c-0.363-6.089-1.397-12.15-3.241-18.09c-0.344-1.24-0.648-2.32-0.902-3.221
		c-0.499-1.781-1.441-1.84-2.116-0.144c-0.336,0.862-0.74,1.895-1.214,3.082c-0.684,1.923-1.737,4.189-3.144,6.678
		c-8.517,14.98-32.26,44.55-53,39.059c-5.018-1.33-8.207-9.093-11.273-12.945c-9.041-11.354-20.219-21.213-32.732-28.584
		C68.561,5.72,38.096-1.16,12.887,6.622c-1.24,0.344-2.321,0.648-3.223,0.903C7.629,8.094,6.448,8.422,6.448,8.422
		s2.237,0.884,6.155,2.433c1.922,0.694,4.189,1.746,6.677,3.152c10.867,6.173,20.353,13.675,27.64,23.991
		c6.173,8.743,18.678,26.862,6.19,34.62C23.483,91.024,0.08,128.911,1.581,164.59c0.088,2.132,0.179,4.186,0.263,6.164
		c0.071,3.861,0.664,7.377,1.175,10.413c0.41,3.027,0.979,5.601,1.633,7.701c0.344,1.24,0.648,2.319,0.902,3.223
		c0.498,1.786,1.441,1.844,2.114,0.14c0.338-0.866,0.748-1.889,1.215-3.077c0.694-1.922,1.745-4.198,3.157-6.679
		c1.313-2.495,2.737-5.228,4.771-7.979c6.635-8.962,14.685-17.058,24.292-22.815c5.075-3.051,23.029-13.046,27.749-5.812
		c18.375,28.193,46.438,47.682,79.774,53.152c2.507,0.408,4.938,0.729,7.366,0.787c2.281,0.127,4.489,0.245,6.629,0.364
		c2.131-0.098,4.186-0.174,6.169-0.261c3.859-0.077,7.37-0.662,10.411-1.174c3.025-0.406,5.6-0.981,7.7-1.631
		c1.24-0.345,2.327-0.644,3.224-0.897C191.879,195.703,191.946,194.768,190.262,194.091z M99.865,121.158
		c-10.32,0-18.677-8.139-19.193-18.327c-0.019-0.328-0.095-0.644-0.095-0.974c0-10.662,8.642-19.298,19.288-19.298
		c10.328,0,18.687,8.131,19.208,18.328c0.013,0.326,0.095,0.642,0.095,0.975C119.168,112.521,110.531,121.158,99.865,121.158z"/>
</g>
</svg>
